1984 - year of green rat
1985 - year of green bull
1986 - year of red tiger
1987 - year of red rabbit
1988 - year of yellow dragon
1989 - year of yellow snake
1990 - year of white horse
1991 - year of white sheep
1992 - year of black monkey
1993 - year of black chicken
1994 - year of green dog
1995 - year of green pig
1996 - year of red rat
1997 - year of red bull
1998 - year of yellow tiger
1999 - year of yellow rabbit
2000 - year of white dragon
2001 - year of white snake
2002 - year of black horse
2003 - year of black sheep
2004 - year of green monkey
2005 - year of green chicken
2006 - year of red dog
2007 - year of red pig
2008 - year of yellow rat
2009 - year of yellow bull
2010 - year of white tiger
2011 - year of white rabbit
2012 - year of black dragon
2013 - year of black snake
2014 - year of green horse
2015 - year of green sheep
2016 - year of red monkey
2017 - year of red chicken
2018 - year of yellow dog
2019 - year of yellow pig
2020 - year of white rat
2021 - year of white bull
2022 - year of black tiger
2023 - year of black rabbit
2024 - year of green dragon
2025 - year of green snake
2026 - year of red horse
2027 - year of red sheep
2028 - year of yellow monkey
2029 - year of yellow chicken
2030 - year of white dog
2031 - year of white pig
2032 - year of black rat
2033 - year of black bull
2034 - year of green tiger
2035 - year of green rabbit
2036 - year of red dragon
2037 - year of red snake
2038 - year of yellow horse
2039 - year of yellow sheep
2040 - year of white monkey
2041 - year of white chicken
2042 - year of black dog
2043 - year of black pig
2044 - year of green rat
2045 - year of green bull
2046 - year of red tiger
2047 - year of red rabbit
2048 - year of yellow dragon
2049 - year of yellow snake
2050 - year of white horse
2051 - year of white sheep
2052 - year of black monkey
2053 - year of black chicken
2054 - year of green dog
2055 - year of green pig
2056 - year of red rat
2057 - year of red bull
2058 - year of yellow tiger
2059 - year of yellow rabbit
2060 - year of white dragon
2061 - year of white snake
2062 - year of black horse
2063 - year of black sheep
2064 - year of green monkey
2065 - year of green chicken
2066 - year of red dog
2067 - year of red pig
2068 - year of yellow rat
2069 - year of yellow bull
2070 - year of white tiger
2071 - year of white rabbit
2072 - year of black dragon
2073 - year of black snake
2074 - year of green horse
2075 - year of green sheep
2076 - year of red monkey
2077 - year of red chicken
2078 - year of yellow dog
2079 - year of yellow pig
2080 - year of white rat
2081 - year of white bull
2082 - year of black tiger
2083 - year of black rabbit
2084 - year of green dragon
2085 - year of green snake
2086 - year of red horse
2087 - year of red sheep
2088 - year of yellow monkey
2089 - year of yellow chicken
2090 - year of white dog
2091 - year of white pig
2092 - year of black rat
2093 - year of black bull
2094 - year of green tiger
2095 - year of green rabbit
2096 - year of red dragon
2097 - year of red snake
2098 - year of yellow horse
2099 - year of yellow sheep
2100 - year of white monkey
2101 - year of white chicken
2102 - year of black dog
2103 - year of black pig
2104 - year of green rat
2105 - year of green bull
2106 - year of red tiger
2107 - year of red rabbit
2108 - year of yellow dragon
2109 - year of yellow snake
2110 - year of white horse
2111 - year of white sheep
2112 - year of black monkey
2113 - year of black chicken
2114 - year of green dog
2115 - year of green pig
2116 - year of red rat
2117 - year of red bull
2118 - year of yellow tiger
2119 - year of yellow rabbit
2120 - year of white dragon
2121 - year of white snake
2122 - year of black horse
2123 - year of black sheep
2124 - year of green monkey
2125 - year of green chicken
2126 - year of red dog
2127 - year of red pig
2128 - year of yellow rat
2129 - year of yellow bull
2130 - year of white tiger
2131 - year of white rabbit
2132 - year of black dragon
2133 - year of black snake
2134 - year of green horse
2135 - year of green sheep
2136 - year of red monkey
2137 - year of red chicken
2138 - year of yellow dog
2139 - year of yellow pig
2140 - year of white rat
2141 - year of white bull
2142 - year of black tiger
2143 - year of black rabbit
2144 - year of green dragon
2145 - year of green snake
2146 - year of red horse
2147 - year of red sheep
2148 - year of yellow monkey
2149 - year of yellow chicken
2150 - year of white dog
2151 - year of white pig
2152 - year of black rat
2153 - year of black bull
2154 - year of green tiger
2155 - year of green rabbit
2156 - year of red dragon
2157 - year of red snake
2158 - year of yellow horse
2159 - year of yellow sheep
2160 - year of white monkey
2161 - year of white chicken
2162 - year of black dog
2163 - year of black pig
2164 - year of green rat
2165 - year of green bull
2166 - year of red tiger
2167 - year of red rabbit
2168 - year of yellow dragon
2169 - year of yellow snake
2170 - year of white horse
2171 - year of white sheep
2172 - year of black monkey
2173 - year of black chicken
2174 - year of green dog
2175 - year of green pig
2176 - year of red rat
2177 - year of red bull
2178 - year of yellow tiger
2179 - year of yellow rabbit
2180 - year of white dragon
2181 - year of white snake
2182 - year of black horse
2183 - year of black sheep
2184 - year of green monkey
2185 - year of green chicken
2186 - year of red dog
2187 - year of red pig
2188 - year of yellow rat
2189 - year of yellow bull
2190 - year of white tiger
2191 - year of white rabbit
2192 - year of black dragon
2193 - year of black snake
2194 - year of green horse
2195 - year of green sheep
2196 - year of red monkey
2197 - year of red chicken
2198 - year of yellow dog
2199 - year of yellow pig
2200 - year of white rat
2201 - year of white bull
2202 - year of black tiger
2203 - year of black rabbit
2204 - year of green dragon
2205 - year of green snake
2206 - year of red horse
2207 - year of red sheep
2208 - year of yellow monkey
2209 - year of yellow chicken
2210 - year of white dog
2211 - year of white pig
2212 - year of black rat
2213 - year of black bull
2214 - year of green tiger
2215 - year of green rabbit
2216 - year of red dragon
2217 - year of red snake
2218 - year of yellow horse
2219 - year of yellow sheep
2220 - year of white monkey
2221 - year of white chicken
2222 - year of black dog
2223 - year of black pig
2224 - year of green rat
2225 - year of green bull
2226 - year of red tiger
2227 - year of red rabbit
2228 - year of yellow dragon
2229 - year of yellow snake
2230 - year of white horse
2231 - year of white sheep
2232 - year of black monkey
2233 - year of black chicken
2234 - year of green dog
2235 - year of green pig
2236 - year of red rat
2237 - year of red bull
2238 - year of yellow tiger
2239 - year of yellow rabbit
2240 - year of white dragon
2241 - year of white snake
2242 - year of black horse
2243 - year of black sheep
2244 - year of green monkey
2245 - year of green chicken
2246 - year of red dog
2247 - year of red pig
2248 - year of yellow rat
2249 - year of yellow bull
2250 - year of white tiger
2251 - year of white rabbit
2252 - year of black dragon
2253 - year of black snake
2254 - year of green horse
2255 - year of green sheep
2256 - year of red monkey
2257 - year of red chicken
2258 - year of yellow dog
2259 - year of yellow pig
2260 - year of white rat
2261 - year of white bull
2262 - year of black tiger
2263 - year of black rabbit
2264 - year of green dragon
2265 - year of green snake
2266 - year of red horse
2267 - year of red sheep
2268 - year of yellow monkey
2269 - year of yellow chicken
2270 - year of white dog
2271 - year of white pig
2272 - year of black rat
2273 - year of black bull
2274 - year of green tiger
2275 - year of green rabbit
2276 - year of red dragon
2277 - year of red snake
2278 - year of yellow horse
2279 - year of yellow sheep
2280 - year of white monkey
2281 - year of white chicken
2282 - year of black dog
2283 - year of black pig
2284 - year of green rat
2285 - year of green bull
2286 - year of red tiger
2287 - year of red rabbit
2288 - year of yellow dragon
2289 - year of yellow snake
2290 - year of white horse
2291 - year of white sheep
2292 - year of black monkey
2293 - year of black chicken
2294 - year of green dog
2295 - year of green pig
2296 - year of red rat
2297 - year of red bull
2298 - year of yellow tiger
2299 - year of yellow rabbit
2300 - year of white dragon
2301 - year of white snake
2302 - year of black horse
2303 - year of black sheep
2304 - year of green monkey
2305 - year of green chicken
2306 - year of red dog
2307 - year of red pig
2308 - year of yellow rat
2309 - year of yellow bull
2310 - year of white tiger
2311 - year of white rabbit
2312 - year of black dragon
2313 - year of black snake
2314 - year of green horse
2315 - year of green sheep
2316 - year of red monkey
2317 - year of red chicken
2318 - year of yellow dog
2319 - year of yellow pig
2320 - year of white rat
2321 - year of white bull
2322 - year of black tiger
2323 - year of black rabbit
2324 - year of green dragon
2325 - year of green snake
2326 - year of red horse
2327 - year of red sheep
2328 - year of yellow monkey
2329 - year of yellow chicken
2330 - year of white dog
2331 - year of white pig
2332 - year of black rat
2333 - year of black bull
2334 - year of green tiger
2335 - year of green rabbit
2336 - year of red dragon
2337 - year of red snake
2338 - year of yellow horse
2339 - year of yellow sheep
2340 - year of white monkey
2341 - year of white chicken
2342 - year of black dog
2343 - year of black pig
2344 - year of green rat
2345 - year of green bull
2346 - year of red tiger
2347 - year of red rabbit
2348 - year of yellow dragon
2349 - year of yellow snake
2350 - year of white horse
2351 - year of white sheep
2352 - year of black monkey
2353 - year of black chicken
2354 - year of green dog
2355 - year of green pig
2356 - year of red rat
2357 - year of red bull
2358 - year of yellow tiger
2359 - year of yellow rabbit
2360 - year of white dragon
2361 - year of white snake
2362 - year of black horse
2363 - year of black sheep
2364 - year of green monkey
2365 - year of green chicken
2366 - year of red dog
2367 - year of red pig
2368 - year of yellow rat
2369 - year of yellow bull
2370 - year of white tiger
2371 - year of white rabbit
2372 - year of black dragon
2373 - year of black snake
2374 - year of green horse
2375 - year of green sheep
2376 - year of red monkey
2377 - year of red chicken
2378 - year of yellow dog
2379 - year of yellow pig
2380 - year of white rat
2381 - year of white bull
2382 - year of black tiger
2383 - year of black rabbit
2384 - year of green dragon
2385 - year of green snake
2386 - year of red horse
2387 - year of red sheep
2388 - year of yellow monkey
2389 - year of yellow chicken
2390 - year of white dog
2391 - year of white pig
2392 - year of black rat
2393 - year of black bull
2394 - year of green tiger
2395 - year of green rabbit
2396 - year of red dragon
2397 - year of red snake
2398 - year of yellow horse
2399 - year of yellow sheep
2400 - year of white monkey
2401 - year of white chicken
2402 - year of black dog
2403 - year of black pig
2404 - year of green rat
2405 - year of green bull
2406 - year of red tiger
2407 - year of red rabbit
2408 - year of yellow dragon
2409 - year of yellow snake
2410 - year of white horse
2411 - year of white sheep
2412 - year of black monkey
2413 - year of black chicken
2414 - year of green dog
2415 - year of green pig
2416 - year of red rat
2417 - year of red bull
2418 - year of yellow tiger
2419 - year of yellow rabbit
2420 - year of white dragon
2421 - year of white snake
2422 - year of black horse
2423 - year of black sheep
2424 - year of green monkey
2425 - year of green chicken
2426 - year of red dog
2427 - year of red pig
2428 - year of yellow rat
2429 - year of yellow bull
2430 - year of white tiger
2431 - year of white rabbit
2432 - year of black dragon
2433 - year of black snake
2434 - year of green horse
2435 - year of green sheep
2436 - year of red monkey
2437 - year of red chicken
2438 - year of yellow dog
2439 - year of yellow pig
2440 - year of white rat
2441 - year of white bull
2442 - year of black tiger
2443 - year of black rabbit
2444 - year of green dragon
2445 - year of green snake
2446 - year of red horse
2447 - year of red sheep
2448 - year of yellow monkey
2449 - year of yellow chicken
2450 - year of white dog
2451 - year of white pig
2452 - year of black rat
2453 - year of black bull
2454 - year of green tiger
2455 - year of green rabbit
2456 - year of red dragon
2457 - year of red snake
2458 - year of yellow horse
2459 - year of yellow sheep
2460 - year of white monkey
2461 - year of white chicken
2462 - year of black dog
2463 - year of black pig
2464 - year of green rat
2465 - year of green bull
2466 - year of red tiger
2467 - year of red rabbit
2468 - year of yellow dragon
2469 - year of yellow snake
2470 - year of white horse
2471 - year of white sheep
2472 - year of black monkey
2473 - year of black chicken
2474 - year of green dog
2475 - year of green pig
2476 - year of red rat
2477 - year of red bull
2478 - year of yellow tiger
2479 - year of yellow rabbit
2480 - year of white dragon
2481 - year of white snake
2482 - year of black horse
2483 - year of black sheep
2484 - year of green monkey
2485 - year of green chicken
2486 - year of red dog
2487 - year of red pig
2488 - year of yellow rat
2489 - year of yellow bull
2490 - year of white tiger
2491 - year of white rabbit
2492 - year of black dragon
2493 - year of black snake
2494 - year of green horse
2495 - year of green sheep
2496 - year of red monkey
2497 - year of red chicken
2498 - year of yellow dog
2499 - year of yellow pig
2500 - year of white rat
2501 - year of white bull
2502 - year of black tiger
2503 - year of black rabbit
2504 - year of green dragon
2505 - year of green snake
2506 - year of red horse
2507 - year of red sheep
2508 - year of yellow monkey
2509 - year of yellow chicken
2510 - year of white dog
2511 - year of white pig
2512 - year of black rat
2513 - year of black bull
2514 - year of green tiger
2515 - year of green rabbit
2516 - year of red dragon
2517 - year of red snake
2518 - year of yellow horse
2519 - year of yellow sheep
2520 - year of white monkey
2521 - year of white chicken
2522 - year of black dog
2523 - year of black pig
2524 - year of green rat
2525 - year of green bull
2526 - year of red tiger
2527 - year of red rabbit
2528 - year of yellow dragon
2529 - year of yellow snake
2530 - year of white horse
2531 - year of white sheep
2532 - year of black monkey
2533 - year of black chicken
2534 - year of green dog
2535 - year of green pig
2536 - year of red rat
2537 - year of red bull
2538 - year of yellow tiger
2539 - year of yellow rabbit
2540 - year of white dragon
2541 - year of white snake
2542 - year of black horse
2543 - year of black sheep
2544 - year of green monkey
2545 - year of green chicken
2546 - year of red dog
2547 - year of red pig
2548 - year of yellow rat
2549 - year of yellow bull
2550 - year of white tiger
2551 - year of white rabbit
2552 - year of black dragon
2553 - year of black snake
2554 - year of green horse
2555 - year of green sheep
2556 - year of red monkey
2557 - year of red chicken
2558 - year of yellow dog
2559 - year of yellow pig
2560 - year of white rat
2561 - year of white bull
2562 - year of black tiger
2563 - year of black rabbit
2564 - year of green dragon
2565 - year of green snake
2566 - year of red horse
2567 - year of red sheep
2568 - year of yellow monkey
2569 - year of yellow chicken
2570 - year of white dog
2571 - year of white pig
2572 - year of black rat
2573 - year of black bull
2574 - year of green tiger
2575 - year of green rabbit
2576 - year of red dragon
2577 - year of red snake
2578 - year of yellow horse
2579 - year of yellow sheep
2580 - year of white monkey
2581 - year of white chicken
2582 - year of black dog
2583 - year of black pig
2584 - year of green rat
2585 - year of green bull
2586 - year of red tiger
2587 - year of red rabbit
2588 - year of yellow dragon
2589 - year of yellow snake
2590 - year of white horse
2591 - year of white sheep
2592 - year of black monkey
2593 - year of black chicken
2594 - year of green dog
2595 - year of green pig
2596 - year of red rat
2597 - year of red bull
2598 - year of yellow tiger
2599 - year of yellow rabbit
2600 - year of white dragon
2601 - year of white snake
2602 - year of black horse
2603 - year of black sheep
2604 - year of green monkey
2605 - year of green chicken
2606 - year of red dog
2607 - year of red pig
2608 - year of yellow rat
2609 - year of yellow bull
2610 - year of white tiger
2611 - year of white rabbit
2612 - year of black dragon
2613 - year of black snake
2614 - year of green horse
2615 - year of green sheep
2616 - year of red monkey
2617 - year of red chicken
2618 - year of yellow dog
2619 - year of yellow pig
2620 - year of white rat
2621 - year of white bull
2622 - year of black tiger
2623 - year of black rabbit
2624 - year of green dragon
2625 - year of green snake
2626 - year of red horse
2627 - year of red sheep
2628 - year of yellow monkey
2629 - year of yellow chicken
2630 - year of white dog
2631 - year of white pig
2632 - year of black rat
2633 - year of black bull
2634 - year of green tiger
2635 - year of green rabbit
2636 - year of red dragon
2637 - year of red snake
2638 - year of yellow horse
2639 - year of yellow sheep
2640 - year of white monkey
2641 - year of white chicken
2642 - year of black dog
2643 - year of black pig
2644 - year of green rat
2645 - year of green bull
2646 - year of red tiger
2647 - year of red rabbit
2648 - year of yellow dragon
2649 - year of yellow snake
2650 - year of white horse
2651 - year of white sheep
2652 - year of black monkey
2653 - year of black chicken
2654 - year of green dog
2655 - year of green pig
2656 - year of red rat
2657 - year of red bull
2658 - year of yellow tiger
2659 - year of yellow rabbit
2660 - year of white dragon
2661 - year of white snake
2662 - year of black horse
2663 - year of black sheep
2664 - year of green monkey
2665 - year of green chicken
2666 - year of red dog
2667 - year of red pig
2668 - year of yellow rat
2669 - year of yellow bull
2670 - year of white tiger
2671 - year of white rabbit
2672 - year of black dragon
2673 - year of black snake
2674 - year of green horse
2675 - year of green sheep
2676 - year of red monkey
2677 - year of red chicken
2678 - year of yellow dog
2679 - year of yellow pig
2680 - year of white rat
2681 - year of white bull
2682 - year of black tiger
2683 - year of black rabbit
2684 - year of green dragon
2685 - year of green snake
2686 - year of red horse
2687 - year of red sheep
2688 - year of yellow monkey
2689 - year of yellow chicken
2690 - year of white dog
2691 - year of white pig
2692 - year of black rat
2693 - year of black bull
2694 - year of green tiger
2695 - year of green rabbit
2696 - year of red dragon
2697 - year of red snake
2698 - year of yellow horse
2699 - year of yellow sheep
2700 - year of white monkey
2701 - year of white chicken
2702 - year of black dog
2703 - year of black pig
2704 - year of green rat
2705 - year of green bull
2706 - year of red tiger
2707 - year of red rabbit
2708 - year of yellow dragon
2709 - year of yellow snake
2710 - year of white horse
2711 - year of white sheep
2712 - year of black monkey
2713 - year of black chicken
2714 - year of green dog
2715 - year of green pig
2716 - year of red rat
2717 - year of red bull
2718 - year of yellow tiger
2719 - year of yellow rabbit
2720 - year of white dragon
2721 - year of white snake
2722 - year of black horse
2723 - year of black sheep
2724 - year of green monkey
2725 - year of green chicken
2726 - year of red dog
2727 - year of red pig
2728 - year of yellow rat
2729 - year of yellow bull
2730 - year of white tiger
2731 - year of white rabbit
2732 - year of black dragon
2733 - year of black snake
2734 - year of green horse
2735 - year of green sheep
2736 - year of red monkey
2737 - year of red chicken
2738 - year of yellow dog
2739 - year of yellow pig
2740 - year of white rat
2741 - year of white bull
2742 - year of black tiger
2743 - year of black rabbit
2744 - year of green dragon
2745 - year of green snake
2746 - year of red horse
2747 - year of red sheep
2748 - year of yellow monkey
2749 - year of yellow chicken
2750 - year of white dog
2751 - year of white pig
2752 - year of black rat
2753 - year of black bull
2754 - year of green tiger
2755 - year of green rabbit
2756 - year of red dragon
2757 - year of red snake
2758 - year of yellow horse
2759 - year of yellow sheep
2760 - year of white monkey
2761 - year of white chicken
2762 - year of black dog
2763 - year of black pig
2764 - year of green rat
2765 - year of green bull
2766 - year of red tiger
2767 - year of red rabbit
2768 - year of yellow dragon
2769 - year of yellow snake
2770 - year of white horse
2771 - year of white sheep
2772 - year of black monkey
2773 - year of black chicken
2774 - year of green dog
2775 - year of green pig
2776 - year of red rat
2777 - year of red bull
2778 - year of yellow tiger
2779 - year of yellow rabbit
2780 - year of white dragon
2781 - year of white snake
2782 - year of black horse
2783 - year of black sheep
2784 - year of green monkey
2785 - year of green chicken
2786 - year of red dog
2787 - year of red pig
2788 - year of yellow rat
2789 - year of yellow bull
2790 - year of white tiger
2791 - year of white rabbit
2792 - year of black dragon
2793 - year of black snake
2794 - year of green horse
2795 - year of green sheep
2796 - year of red monkey
2797 - year of red chicken
2798 - year of yellow dog
2799 - year of yellow pig
2800 - year of white rat
2801 - year of white bull
2802 - year of black tiger
2803 - year of black rabbit
2804 - year of green dragon
2805 - year of green snake
2806 - year of red horse
2807 - year of red sheep
2808 - year of yellow monkey
2809 - year of yellow chicken
2810 - year of white dog
2811 - year of white pig
2812 - year of black rat
2813 - year of black bull
2814 - year of green tiger
2815 - year of green rabbit
2816 - year of red dragon
2817 - year of red snake
2818 - year of yellow horse
2819 - year of yellow sheep
2820 - year of white monkey
2821 - year of white chicken
2822 - year of black dog
2823 - year of black pig
2824 - year of green rat
2825 - year of green bull
2826 - year of red tiger
2827 - year of red rabbit
2828 - year of yellow dragon
2829 - year of yellow snake
2830 - year of white horse
2831 - year of white sheep
2832 - year of black monkey
2833 - year of black chicken
2834 - year of green dog
2835 - year of green pig
2836 - year of red rat
2837 - year of red bull
2838 - year of yellow tiger
2839 - year of yellow rabbit
2840 - year of white dragon
2841 - year of white snake
2842 - year of black horse
2843 - year of black sheep
2844 - year of green monkey
2845 - year of green chicken
2846 - year of red dog
2847 - year of red pig
2848 - year of yellow rat
2849 - year of yellow bull
2850 - year of white tiger
2851 - year of white rabbit
2852 - year of black dragon
2853 - year of black snake
2854 - year of green horse
2855 - year of green sheep
2856 - year of red monkey
2857 - year of red chicken
2858 - year of yellow dog
2859 - year of yellow pig
2860 - year of white rat
2861 - year of white bull
2862 - year of black tiger
2863 - year of black rabbit
2864 - year of green dragon
2865 - year of green snake
2866 - year of red horse
2867 - year of red sheep
2868 - year of yellow monkey
2869 - year of yellow chicken
2870 - year of white dog
2871 - year of white pig
2872 - year of black rat
2873 - year of black bull
2874 - year of green tiger
2875 - year of green rabbit
2876 - year of red dragon
2877 - year of red snake
2878 - year of yellow horse
2879 - year of yellow sheep
2880 - year of white monkey
2881 - year of white chicken
2882 - year of black dog
2883 - year of black pig
2884 - year of green rat
2885 - year of green bull
2886 - year of red tiger
2887 - year of red rabbit
2888 - year of yellow dragon
2889 - year of yellow snake
2890 - year of white horse
2891 - year of white sheep
2892 - year of black monkey
2893 - year of black chicken
2894 - year of green dog
2895 - year of green pig
2896 - year of red rat
2897 - year of red bull
2898 - year of yellow tiger
2899 - year of yellow rabbit
2900 - year of white dragon
2901 - year of white snake
2902 - year of black horse
2903 - year of black sheep
2904 - year of green monkey
2905 - year of green chicken
2906 - year of red dog
2907 - year of red pig
2908 - year of yellow rat
2909 - year of yellow bull
2910 - year of white tiger
2911 - year of white rabbit
2912 - year of black dragon
2913 - year of black snake
2914 - year of green horse
2915 - year of green sheep
2916 - year of red monkey
2917 - year of red chicken
2918 - year of yellow dog
2919 - year of yellow pig
2920 - year of white rat
2921 - year of white bull
2922 - year of black tiger
2923 - year of black rabbit
2924 - year of green dragon
2925 - year of green snake
2926 - year of red horse
2927 - year of red sheep
2928 - year of yellow monkey
2929 - year of yellow chicken
2930 - year of white dog
2931 - year of white pig
2932 - year of black rat
2933 - year of black bull
2934 - year of green tiger
2935 - year of green rabbit
2936 - year of red dragon
2937 - year of red snake
2938 - year of yellow horse
2939 - year of yellow sheep
2940 - year of white monkey
2941 - year of white chicken
2942 - year of black dog
2943 - year of black pig
2944 - year of green rat
2945 - year of green bull
2946 - year of red tiger
2947 - year of red rabbit
2948 - year of yellow dragon
2949 - year of yellow snake
2950 - year of white horse
2951 - year of white sheep
2952 - year of black monkey
2953 - year of black chicken
2954 - year of green dog
2955 - year of green pig
2956 - year of red rat
2957 - year of red bull
2958 - year of yellow tiger
2959 - year of yellow rabbit
2960 - year of white dragon
2961 - year of white snake
2962 - year of black horse
2963 - year of black sheep
2964 - year of green monkey
2965 - year of green chicken
2966 - year of red dog
2967 - year of red pig
2968 - year of yellow rat
2969 - year of yellow bull
2970 - year of white tiger
2971 - year of white rabbit
2972 - year of black dragon
2973 - year of black snake
2974 - year of green horse
2975 - year of green sheep
2976 - year of red monkey
2977 - year of red chicken
2978 - year of yellow dog
2979 - year of yellow pig
2980 - year of white rat
2981 - year of white bull
2982 - year of black tiger
2983 - year of black rabbit
2984 - year of green dragon
2985 - year of green snake
2986 - year of red horse
2987 - year of red sheep
2988 - year of yellow monkey
2989 - year of yellow chicken
2990 - year of white dog
2991 - year of white pig
2992 - year of black rat
2993 - year of black bull
2994 - year of green tiger
2995 - year of green rabbit
2996 - year of red dragon
2997 - year of red snake
2998 - year of yellow horse
2999 - year of yellow sheep
3000 - year of white monkey
3001 - year of white chicken
3002 - year of black dog
3003 - year of black pig
3004 - year of green rat
3005 - year of green bull
3006 - year of red tiger
3007 - year of red rabbit
3008 - year of yellow dragon
3009 - year of yellow snake
3010 - year of white horse
3011 - year of white sheep
3012 - year of black monkey
3013 - year of black chicken
3014 - year of green dog
3015 - year of green pig
3016 - year of red rat
3017 - year of red bull
3018 - year of yellow tiger
3019 - year of yellow rabbit
3020 - year of white dragon
3021 - year of white snake
3022 - year of black horse
3023 - year of black sheep
3024 - year of green monkey
3025 - year of green chicken
3026 - year of red dog
3027 - year of red pig
3028 - year of yellow rat
3029 - year of yellow bull
3030 - year of white tiger
3031 - year of white rabbit
3032 - year of black dragon
3033 - year of black snake
3034 - year of green horse
3035 - year of green sheep
3036 - year of red monkey
3037 - year of red chicken
3038 - year of yellow dog
3039 - year of yellow pig
3040 - year of white rat
3041 - year of white bull
3042 - year of black tiger
3043 - year of black rabbit
3044 - year of green dragon
3045 - year of green snake
3046 - year of red horse
3047 - year of red sheep
3048 - year of yellow monkey
3049 - year of yellow chicken
3050 - year of white dog
3051 - year of white pig
3052 - year of black rat
3053 - year of black bull
3054 - year of green tiger
3055 - year of green rabbit
3056 - year of red dragon
3057 - year of red snake
3058 - year of yellow horse
3059 - year of yellow sheep
3060 - year of white monkey
3061 - year of white chicken
3062 - year of black dog
3063 - year of black pig
3064 - year of green rat
3065 - year of green bull
3066 - year of red tiger
3067 - year of red rabbit
3068 - year of yellow dragon
3069 - year of yellow snake
3070 - year of white horse
3071 - year of white sheep
3072 - year of black monkey
3073 - year of black chicken
3074 - year of green dog
3075 - year of green pig
3076 - year of red rat
3077 - year of red bull
3078 - year of yellow tiger
3079 - year of yellow rabbit
3080 - year of white dragon
3081 - year of white snake
3082 - year of black horse
3083 - year of black sheep
3084 - year of green monkey
3085 - year of green chicken
3086 - year of red dog
3087 - year of red pig
3088 - year of yellow rat
3089 - year of yellow bull
3090 - year of white tiger
3091 - year of white rabbit
3092 - year of black dragon
3093 - year of black snake
3094 - year of green horse
3095 - year of green sheep
3096 - year of red monkey
3097 - year of red chicken
3098 - year of yellow dog
3099 - year of yellow pig
3100 - year of white rat
3101 - year of white bull
3102 - year of black tiger
3103 - year of black rabbit
3104 - year of green dragon
3105 - year of green snake
3106 - year of red horse
3107 - year of red sheep
3108 - year of yellow monkey
3109 - year of yellow chicken
3110 - year of white dog
3111 - year of white pig
3112 - year of black rat
3113 - year of black bull
3114 - year of green tiger
3115 - year of green rabbit
3116 - year of red dragon
3117 - year of red snake
3118 - year of yellow horse
3119 - year of yellow sheep
3120 - year of white monkey
3121 - year of white chicken
3122 - year of black dog
3123 - year of black pig
3124 - year of green rat
3125 - year of green bull
3126 - year of red tiger
3127 - year of red rabbit
3128 - year of yellow dragon
3129 - year of yellow snake
3130 - year of white horse
3131 - year of white sheep
3132 - year of black monkey
3133 - year of black chicken
3134 - year of green dog
3135 - year of green pig
3136 - year of red rat
3137 - year of red bull
3138 - year of yellow tiger
3139 - year of yellow rabbit
3140 - year of white dragon
3141 - year of white snake
3142 - year of black horse
3143 - year of black sheep
3144 - year of green monkey
3145 - year of green chicken
3146 - year of red dog
3147 - year of red pig
3148 - year of yellow rat
3149 - year of yellow bull
3150 - year of white tiger
3151 - year of white rabbit
3152 - year of black dragon
3153 - year of black snake
3154 - year of green horse
3155 - year of green sheep
3156 - year of red monkey
3157 - year of red chicken
3158 - year of yellow dog
3159 - year of yellow pig
3160 - year of white rat
3161 - year of white bull
3162 - year of black tiger
3163 - year of black rabbit
3164 - year of green dragon
3165 - year of green snake
3166 - year of red horse
3167 - year of red sheep
3168 - year of yellow monkey
3169 - year of yellow chicken
3170 - year of white dog
3171 - year of white pig
3172 - year of black rat
3173 - year of black bull
3174 - year of green tiger
3175 - year of green rabbit
3176 - year of red dragon
3177 - year of red snake
3178 - year of yellow horse
3179 - year of yellow sheep
3180 - year of white monkey
3181 - year of white chicken
3182 - year of black dog
3183 - year of black pig
3184 - year of green rat
3185 - year of green bull
3186 - year of red tiger
3187 - year of red rabbit
3188 - year of yellow dragon
3189 - year of yellow snake
3190 - year of white horse
3191 - year of white sheep
3192 - year of black monkey
3193 - year of black chicken
3194 - year of green dog
3195 - year of green pig
3196 - year of red rat
3197 - year of red bull
3198 - year of yellow tiger
3199 - year of yellow rabbit
3200 - year of white dragon
3201 - year of white snake
3202 - year of black horse
3203 - year of black sheep
3204 - year of green monkey
3205 - year of green chicken
3206 - year of red dog
3207 - year of red pig
3208 - year of yellow rat
3209 - year of yellow bull
3210 - year of white tiger
3211 - year of white rabbit
3212 - year of black dragon
3213 - year of black snake
3214 - year of green horse
3215 - year of green sheep
3216 - year of red monkey
3217 - year of red chicken
3218 - year of yellow dog
3219 - year of yellow pig
3220 - year of white rat
3221 - year of white bull
3222 - year of black tiger
3223 - year of black rabbit
3224 - year of green dragon
3225 - year of green snake
3226 - year of red horse
3227 - year of red sheep
3228 - year of yellow monkey
3229 - year of yellow chicken
3230 - year of white dog
3231 - year of white pig
3232 - year of black rat
3233 - year of black bull
3234 - year of green tiger
3235 - year of green rabbit
3236 - year of red dragon
3237 - year of red snake
3238 - year of yellow horse
3239 - year of yellow sheep
3240 - year of white monkey
3241 - year of white chicken
3242 - year of black dog
3243 - year of black pig
3244 - year of green rat
3245 - year of green bull
3246 - year of red tiger
3247 - year of red rabbit
3248 - year of yellow dragon
3249 - year of yellow snake
3250 - year of white horse
3251 - year of white sheep
3252 - year of black monkey
3253 - year of black chicken
3254 - year of green dog
3255 - year of green pig
3256 - year of red rat
3257 - year of red bull
3258 - year of yellow tiger
3259 - year of yellow rabbit
3260 - year of white dragon
3261 - year of white snake
3262 - year of black horse
3263 - year of black sheep
3264 - year of green monkey
3265 - year of green chicken
3266 - year of red dog
3267 - year of red pig
3268 - year of yellow rat
3269 - year of yellow bull
3270 - year of white tiger
3271 - year of white rabbit
3272 - year of black dragon
3273 - year of black snake
3274 - year of green horse
3275 - year of green sheep
3276 - year of red monkey
3277 - year of red chicken
3278 - year of yellow dog
3279 - year of yellow pig
3280 - year of white rat
3281 - year of white bull
3282 - year of black tiger
3283 - year of black rabbit
3284 - year of green dragon
3285 - year of green snake
3286 - year of red horse
3287 - year of red sheep
3288 - year of yellow monkey
3289 - year of yellow chicken
3290 - year of white dog
3291 - year of white pig
3292 - year of black rat
3293 - year of black bull
3294 - year of green tiger
3295 - year of green rabbit
3296 - year of red dragon
3297 - year of red snake
3298 - year of yellow horse
3299 - year of yellow sheep
3300 - year of white monkey
3301 - year of white chicken
3302 - year of black dog
3303 - year of black pig
3304 - year of green rat
3305 - year of green bull
3306 - year of red tiger
3307 - year of red rabbit
3308 - year of yellow dragon
3309 - year of yellow snake
3310 - year of white horse
3311 - year of white sheep
3312 - year of black monkey
3313 - year of black chicken
3314 - year of green dog
3315 - year of green pig
3316 - year of red rat
3317 - year of red bull
3318 - year of yellow tiger
3319 - year of yellow rabbit
3320 - year of white dragon
3321 - year of white snake
3322 - year of black horse
3323 - year of black sheep
3324 - year of green monkey
3325 - year of green chicken
3326 - year of red dog
3327 - year of red pig
3328 - year of yellow rat
3329 - year of yellow bull
3330 - year of white tiger
3331 - year of white rabbit
3332 - year of black dragon
3333 - year of black snake
3334 - year of green horse
3335 - year of green sheep
3336 - year of red monkey
3337 - year of red chicken
3338 - year of yellow dog
3339 - year of yellow pig
3340 - year of white rat
3341 - year of white bull
3342 - year of black tiger
3343 - year of black rabbit
3344 - year of green dragon
3345 - year of green snake
3346 - year of red horse
3347 - year of red sheep
3348 - year of yellow monkey
3349 - year of yellow chicken
3350 - year of white dog
3351 - year of white pig
3352 - year of black rat
3353 - year of black bull
3354 - year of green tiger
3355 - year of green rabbit
3356 - year of red dragon
3357 - year of red snake
3358 - year of yellow horse
3359 - year of yellow sheep
3360 - year of white monkey
3361 - year of white chicken
3362 - year of black dog
3363 - year of black pig
3364 - year of green rat
3365 - year of green bull
3366 - year of red tiger
3367 - year of red rabbit
3368 - year of yellow dragon
3369 - year of yellow snake
3370 - year of white horse
3371 - year of white sheep
3372 - year of black monkey
3373 - year of black chicken
3374 - year of green dog
3375 - year of green pig
3376 - year of red rat
3377 - year of red bull
3378 - year of yellow tiger
3379 - year of yellow rabbit
3380 - year of white dragon
3381 - year of white snake
3382 - year of black horse
3383 - year of black sheep
3384 - year of green monkey
3385 - year of green chicken
3386 - year of red dog
3387 - year of red pig
3388 - year of yellow rat
3389 - year of yellow bull
3390 - year of white tiger
3391 - year of white rabbit
3392 - year of black dragon
3393 - year of black snake
3394 - year of green horse
3395 - year of green sheep
3396 - year of red monkey
3397 - year of red chicken
3398 - year of yellow dog
3399 - year of yellow pig
3400 - year of white rat
3401 - year of white bull
3402 - year of black tiger
3403 - year of black rabbit
3404 - year of green dragon
3405 - year of green snake
3406 - year of red horse
3407 - year of red sheep
3408 - year of yellow monkey
3409 - year of yellow chicken
3410 - year of white dog
3411 - year of white pig
3412 - year of black rat
3413 - year of black bull
3414 - year of green tiger
3415 - year of green rabbit
3416 - year of red dragon
3417 - year of red snake
3418 - year of yellow horse
3419 - year of yellow sheep
3420 - year of white monkey
3421 - year of white chicken
3422 - year of black dog
3423 - year of black pig
3424 - year of green rat
3425 - year of green bull
3426 - year of red tiger
3427 - year of red rabbit
3428 - year of yellow dragon
3429 - year of yellow snake
3430 - year of white horse
3431 - year of white sheep
3432 - year of black monkey
3433 - year of black chicken
3434 - year of green dog
3435 - year of green pig
3436 - year of red rat
3437 - year of red bull
3438 - year of yellow tiger
3439 - year of yellow rabbit
3440 - year of white dragon
3441 - year of white snake
3442 - year of black horse
3443 - year of black sheep
3444 - year of green monkey
3445 - year of green chicken
3446 - year of red dog
3447 - year of red pig
3448 - year of yellow rat
3449 - year of yellow bull
3450 - year of white tiger
3451 - year of white rabbit
3452 - year of black dragon
3453 - year of black snake
3454 - year of green horse
3455 - year of green sheep
3456 - year of red monkey
3457 - year of red chicken
3458 - year of yellow dog
3459 - year of yellow pig
3460 - year of white rat
3461 - year of white bull
3462 - year of black tiger
3463 - year of black rabbit
3464 - year of green dragon
3465 - year of green snake
3466 - year of red horse
3467 - year of red sheep
3468 - year of yellow monkey
3469 - year of yellow chicken
3470 - year of white dog
3471 - year of white pig
3472 - year of black rat
3473 - year of black bull
3474 - year of green tiger
3475 - year of green rabbit
3476 - year of red dragon
3477 - year of red snake
3478 - year of yellow horse
3479 - year of yellow sheep
3480 - year of white monkey
3481 - year of white chicken
3482 - year of black dog
3483 - year of black pig
3484 - year of green rat
3485 - year of green bull
3486 - year of red tiger
3487 - year of red rabbit
3488 - year of yellow dragon
3489 - year of yellow snake
3490 - year of white horse
3491 - year of white sheep
3492 - year of black monkey
3493 - year of black chicken
3494 - year of green dog
3495 - year of green pig
3496 - year of red rat
3497 - year of red bull
3498 - year of yellow tiger
3499 - year of yellow rabbit
3500 - year of white dragon
3501 - year of white snake
3502 - year of black horse
3503 - year of black sheep
3504 - year of green monkey
3505 - year of green chicken
3506 - year of red dog
3507 - year of red pig
3508 - year of yellow rat
3509 - year of yellow bull
3510 - year of white tiger
3511 - year of white rabbit
3512 - year of black dragon
3513 - year of black snake
3514 - year of green horse
3515 - year of green sheep
3516 - year of red monkey
3517 - year of red chicken
3518 - year of yellow dog
3519 - year of yellow pig
3520 - year of white rat
3521 - year of white bull
3522 - year of black tiger
3523 - year of black rabbit
3524 - year of green dragon
3525 - year of green snake
3526 - year of red horse
3527 - year of red sheep
3528 - year of yellow monkey
3529 - year of yellow chicken
3530 - year of white dog
3531 - year of white pig
3532 - year of black rat
3533 - year of black bull
3534 - year of green tiger
3535 - year of green rabbit
3536 - year of red dragon
3537 - year of red snake
3538 - year of yellow horse
3539 - year of yellow sheep
3540 - year of white monkey
3541 - year of white chicken
3542 - year of black dog
3543 - year of black pig
3544 - year of green rat
3545 - year of green bull
3546 - year of red tiger
3547 - year of red rabbit
3548 - year of yellow dragon
3549 - year of yellow snake
3550 - year of white horse
3551 - year of white sheep
3552 - year of black monkey
3553 - year of black chicken
3554 - year of green dog
3555 - year of green pig
3556 - year of red rat
3557 - year of red bull
3558 - year of yellow tiger
3559 - year of yellow rabbit
3560 - year of white dragon
3561 - year of white snake
3562 - year of black horse
3563 - year of black sheep
3564 - year of green monkey
3565 - year of green chicken
3566 - year of red dog
3567 - year of red pig
3568 - year of yellow rat
3569 - year of yellow bull
3570 - year of white tiger
3571 - year of white rabbit
3572 - year of black dragon
3573 - year of black snake
3574 - year of green horse
3575 - year of green sheep
3576 - year of red monkey
3577 - year of red chicken
3578 - year of yellow dog
3579 - year of yellow pig
3580 - year of white rat
3581 - year of white bull
3582 - year of black tiger
3583 - year of black rabbit
3584 - year of green dragon
3585 - year of green snake
3586 - year of red horse
3587 - year of red sheep
3588 - year of yellow monkey
3589 - year of yellow chicken
3590 - year of white dog
3591 - year of white pig
3592 - year of black rat
3593 - year of black bull
3594 - year of green tiger
3595 - year of green rabbit
3596 - year of red dragon
3597 - year of red snake
3598 - year of yellow horse
3599 - year of yellow sheep
3600 - year of white monkey
3601 - year of white chicken
3602 - year of black dog
3603 - year of black pig
3604 - year of green rat
3605 - year of green bull
3606 - year of red tiger
3607 - year of red rabbit
3608 - year of yellow dragon
3609 - year of yellow snake
3610 - year of white horse
3611 - year of white sheep
3612 - year of black monkey
3613 - year of black chicken
3614 - year of green dog
3615 - year of green pig
3616 - year of red rat
3617 - year of red bull
3618 - year of yellow tiger
3619 - year of yellow rabbit
3620 - year of white dragon
3621 - year of white snake
3622 - year of black horse
3623 - year of black sheep
3624 - year of green monkey
3625 - year of green chicken
3626 - year of red dog
3627 - year of red pig
3628 - year of yellow rat
3629 - year of yellow bull
3630 - year of white tiger
3631 - year of white rabbit
3632 - year of black dragon
3633 - year of black snake
3634 - year of green horse
3635 - year of green sheep
3636 - year of red monkey
3637 - year of red chicken
3638 - year of yellow dog
3639 - year of yellow pig
3640 - year of white rat
3641 - year of white bull
3642 - year of black tiger
3643 - year of black rabbit
3644 - year of green dragon
3645 - year of green snake
3646 - year of red horse
3647 - year of red sheep
3648 - year of yellow monkey
3649 - year of yellow chicken
3650 - year of white dog
3651 - year of white pig
3652 - year of black rat
3653 - year of black bull
3654 - year of green tiger
3655 - year of green rabbit
3656 - year of red dragon
3657 - year of red snake
3658 - year of yellow horse
3659 - year of yellow sheep
3660 - year of white monkey
3661 - year of white chicken
3662 - year of black dog
3663 - year of black pig
3664 - year of green rat
3665 - year of green bull
3666 - year of red tiger
3667 - year of red rabbit
3668 - year of yellow dragon
3669 - year of yellow snake
3670 - year of white horse
3671 - year of white sheep
3672 - year of black monkey
3673 - year of black chicken
3674 - year of green dog
3675 - year of green pig
3676 - year of red rat
3677 - year of red bull
3678 - year of yellow tiger
3679 - year of yellow rabbit
3680 - year of white dragon
3681 - year of white snake
3682 - year of black horse
3683 - year of black sheep
3684 - year of green monkey
3685 - year of green chicken
3686 - year of red dog
3687 - year of red pig
3688 - year of yellow rat
3689 - year of yellow bull
3690 - year of white tiger
3691 - year of white rabbit
3692 - year of black dragon
3693 - year of black snake
3694 - year of green horse
3695 - year of green sheep
3696 - year of red monkey
3697 - year of red chicken
3698 - year of yellow dog
3699 - year of yellow pig
3700 - year of white rat
3701 - year of white bull
3702 - year of black tiger
3703 - year of black rabbit
3704 - year of green dragon
3705 - year of green snake
3706 - year of red horse
3707 - year of red sheep
3708 - year of yellow monkey
3709 - year of yellow chicken
3710 - year of white dog
3711 - year of white pig
3712 - year of black rat
3713 - year of black bull
3714 - year of green tiger
3715 - year of green rabbit
3716 - year of red dragon
3717 - year of red snake
3718 - year of yellow horse
3719 - year of yellow sheep
3720 - year of white monkey
3721 - year of white chicken
3722 - year of black dog
3723 - year of black pig
3724 - year of green rat
3725 - year of green bull
3726 - year of red tiger
3727 - year of red rabbit
3728 - year of yellow dragon
3729 - year of yellow snake
3730 - year of white horse
3731 - year of white sheep
3732 - year of black monkey
3733 - year of black chicken
3734 - year of green dog
3735 - year of green pig
3736 - year of red rat
3737 - year of red bull
3738 - year of yellow tiger
3739 - year of yellow rabbit
3740 - year of white dragon
3741 - year of white snake
3742 - year of black horse
3743 - year of black sheep
3744 - year of green monkey
3745 - year of green chicken
3746 - year of red dog
3747 - year of red pig
3748 - year of yellow rat
3749 - year of yellow bull
3750 - year of white tiger
3751 - year of white rabbit
3752 - year of black dragon
3753 - year of black snake
3754 - year of green horse
3755 - year of green sheep
3756 - year of red monkey
3757 - year of red chicken
3758 - year of yellow dog
3759 - year of yellow pig
3760 - year of white rat
3761 - year of white bull
3762 - year of black tiger
3763 - year of black rabbit
3764 - year of green dragon
3765 - year of green snake
3766 - year of red horse
3767 - year of red sheep
3768 - year of yellow monkey
3769 - year of yellow chicken
3770 - year of white dog
3771 - year of white pig
3772 - year of black rat
3773 - year of black bull
3774 - year of green tiger
3775 - year of green rabbit
3776 - year of red dragon
3777 - year of red snake
3778 - year of yellow horse
3779 - year of yellow sheep
3780 - year of white monkey
3781 - year of white chicken
3782 - year of black dog
3783 - year of black pig
3784 - year of green rat
3785 - year of green bull
3786 - year of red tiger
3787 - year of red rabbit
3788 - year of yellow dragon
3789 - year of yellow snake
3790 - year of white horse
3791 - year of white sheep
3792 - year of black monkey
3793 - year of black chicken
3794 - year of green dog
3795 - year of green pig
3796 - year of red rat
3797 - year of red bull
3798 - year of yellow tiger
3799 - year of yellow rabbit
3800 - year of white dragon
3801 - year of white snake
3802 - year of black horse
3803 - year of black sheep
3804 - year of green monkey
3805 - year of green chicken
3806 - year of red dog
3807 - year of red pig
3808 - year of yellow rat
3809 - year of yellow bull
3810 - year of white tiger
3811 - year of white rabbit
3812 - year of black dragon
3813 - year of black snake
3814 - year of green horse
3815 - year of green sheep
3816 - year of red monkey
3817 - year of red chicken
3818 - year of yellow dog
3819 - year of yellow pig
3820 - year of white rat
3821 - year of white bull
3822 - year of black tiger
3823 - year of black rabbit
3824 - year of green dragon
3825 - year of green snake
3826 - year of red horse
3827 - year of red sheep
3828 - year of yellow monkey
3829 - year of yellow chicken
3830 - year of white dog
3831 - year of white pig
3832 - year of black rat
3833 - year of black bull
3834 - year of green tiger
3835 - year of green rabbit
3836 - year of red dragon
3837 - year of red snake
3838 - year of yellow horse
3839 - year of yellow sheep
3840 - year of white monkey
3841 - year of white chicken
3842 - year of black dog
3843 - year of black pig
3844 - year of green rat
3845 - year of green bull
3846 - year of red tiger
3847 - year of red rabbit
3848 - year of yellow dragon
3849 - year of yellow snake
3850 - year of white horse
3851 - year of white sheep
3852 - year of black monkey
3853 - year of black chicken
3854 - year of green dog
3855 - year of green pig
3856 - year of red rat
3857 - year of red bull
3858 - year of yellow tiger
3859 - year of yellow rabbit
3860 - year of white dragon
3861 - year of white snake
3862 - year of black horse
3863 - year of black sheep
3864 - year of green monkey
3865 - year of green chicken
3866 - year of red dog
3867 - year of red pig
3868 - year of yellow rat
3869 - year of yellow bull
3870 - year of white tiger
3871 - year of white rabbit
3872 - year of black dragon
3873 - year of black snake
3874 - year of green horse
3875 - year of green sheep
3876 - year of red monkey
3877 - year of red chicken
3878 - year of yellow dog
3879 - year of yellow pig
3880 - year of white rat
3881 - year of white bull
3882 - year of black tiger
3883 - year of black rabbit
3884 - year of green dragon
3885 - year of green snake
3886 - year of red horse
3887 - year of red sheep
3888 - year of yellow monkey
3889 - year of yellow chicken
3890 - year of white dog
3891 - year of white pig
3892 - year of black rat
3893 - year of black bull
3894 - year of green tiger
3895 - year of green rabbit
3896 - year of red dragon
3897 - year of red snake
3898 - year of yellow horse
3899 - year of yellow sheep
3900 - year of white monkey
3901 - year of white chicken
3902 - year of black dog
3903 - year of black pig
3904 - year of green rat
3905 - year of green bull
3906 - year of red tiger
3907 - year of red rabbit
3908 - year of yellow dragon
3909 - year of yellow snake
3910 - year of white horse
3911 - year of white sheep
3912 - year of black monkey
3913 - year of black chicken
3914 - year of green dog
3915 - year of green pig
3916 - year of red rat
3917 - year of red bull
3918 - year of yellow tiger
3919 - year of yellow rabbit
3920 - year of white dragon
3921 - year of white snake
3922 - year of black horse
3923 - year of black sheep
3924 - year of green monkey
3925 - year of green chicken
3926 - year of red dog
3927 - year of red pig
3928 - year of yellow rat
3929 - year of yellow bull
3930 - year of white tiger
3931 - year of white rabbit
3932 - year of black dragon
3933 - year of black snake
3934 - year of green horse
3935 - year of green sheep
3936 - year of red monkey
3937 - year of red chicken
3938 - year of yellow dog
3939 - year of yellow pig
3940 - year of white rat
3941 - year of white bull
3942 - year of black tiger
3943 - year of black rabbit
3944 - year of green dragon
3945 - year of green snake
3946 - year of red horse
3947 - year of red sheep
3948 - year of yellow monkey
3949 - year of yellow chicken
3950 - year of white dog
3951 - year of white pig
3952 - year of black rat
3953 - year of black bull
3954 - year of green tiger
3955 - year of green rabbit
3956 - year of red dragon
3957 - year of red snake
3958 - year of yellow horse
3959 - year of yellow sheep
3960 - year of white monkey
3961 - year of white chicken
3962 - year of black dog
3963 - year of black pig
3964 - year of green rat
3965 - year of green bull
3966 - year of red tiger
3967 - year of red rabbit
3968 - year of yellow dragon
3969 - year of yellow snake
3970 - year of white horse
3971 - year of white sheep
3972 - year of black monkey
3973 - year of black chicken
3974 - year of green dog
3975 - year of green pig
3976 - year of red rat
3977 - year of red bull
3978 - year of yellow tiger
3979 - year of yellow rabbit
3980 - year of white dragon
3981 - year of white snake
3982 - year of black horse
3983 - year of black sheep
3984 - year of green monkey
3985 - year of green chicken
3986 - year of red dog
3987 - year of red pig
3988 - year of yellow rat
3989 - year of yellow bull
3990 - year of white tiger
3991 - year of white rabbit
3992 - year of black dragon
3993 - year of black snake
3994 - year of green horse
3995 - year of green sheep
3996 - year of red monkey
3997 - year of red chicken
3998 - year of yellow dog
3999 - year of yellow pig
4000 - year of white rat
